<svg fill="none" version="1.1" viewBox="0 0 17 23" xmlns="http://www.w3.org/2000/svg">
 <path d="M0 2.15625V21.9084C0 22.5104 0.482552 23 1.07578 23C1.29714 23 1.51406 22.9326 1.69557 22.8023L8.5 17.9688L15.3044 22.8023C15.4859 22.9326 15.7029 23 15.9242 23C16.5174 23 17 22.5104 17 21.9084V2.15625C17 0.96582 16.0482 0 14.875 0H2.125C0.951823 0 0 0.96582 0 2.15625Z" fill="#EA8D00"/>
</svg>
