<svg width="64" height="64" version="1.1" viewBox="0 0 16.9 16.9" xmlns="http://www.w3.org/2000/svg" xmlns:xlink="http://www.w3.org/1999/xlink">
 <defs>
  <linearGradient id="a" x1="120" x2="120" y1="93.549" y2="321.45" gradientTransform="matrix(.052123 0 0 .052123 15.949 -1.9828)" gradientUnits="userSpaceOnUse">
   <stop stop-color="#ee6000" offset="0"/>
   <stop stop-color="#ffa76b" offset=".96452"/>
   <stop stop-color="#fed2b4" offset="1"/>
  </linearGradient>
  <linearGradient id="b" x1="28.047" x2="23.708" y1="-1.0336" y2="7.4632" gradientUnits="userSpaceOnUse">
   <stop stop-color="#fff" offset="0"/>
   <stop stop-color="#fff" stop-opacity="0" offset="1"/>
  </linearGradient>
 </defs>
 <g transform="translate(-17.923 .0082796)">
  <path d="m21.161 2.187c-0.57573 0-1.0425 0.46672-1.0425 1.0425v6.2547c0 0.57573 0.46672 1.0425 1.0425 1.0425 0.23199-8.11e-4 0.47447-0.05933 0.63952-0.22234 2.0886-2.0626 4.1201-4.1821 6.2239-6.2295 0.24095-0.23293 0.43278-0.51024 0.43378-0.84536 0-0.57573-0.46672-1.0425-1.0425-1.0425zm10.425 4.1698c-0.23196 8.112e-4 -0.47447 0.059332-0.63952 0.22234-2.0886 2.0626-4.1201 4.1821-6.2239 6.2295-0.24095 0.23293-0.43278 0.51024-0.43378 0.84536 0 0.57573 0.46672 1.0425 1.0425 1.0425h6.2547c0.57573 0 1.0425-0.46672 1.0425-1.0425v-6.2547c0-0.57573-0.46672-1.0425-1.0425-1.0425z" fill="url(#a)"/>
  <path d="m21.16 2.4513c-0.43302 0-0.77723 0.34421-0.77723 0.77723v2.6463a6.4474 6.5345 0 0 1 2.1801-0.40177 6.4474 6.5345 0 0 1 2.9496 0.72566c0.77011-0.77625 1.5429-1.5505 2.3276-2.3142 0.216-0.20882 0.35259-0.42125 0.35329-0.65603 0-0.43302-0.34421-0.77723-0.77723-0.77723zm10.426 4.1698c-0.18819 6.582e-4 -0.35936 0.05213-0.45489 0.14647-0.93863 0.92696-1.8666 1.8665-2.7953 2.8062a6.4474 6.5345 0 0 1 0.82777-0.059827 6.4474 6.5345 0 0 1 3.1997 0.86336v-2.979c0-0.43302-0.34421-0.77723-0.77723-0.77723z" color="#000000" fill="url(#b)" opacity=".7128" style="-inkscape-stroke:none"/>
 </g>
</svg>
